<?xml version="1.0" encoding="utf-8"?>
<!-- Generator: Adobe Illustrator 22.1.0, SVG Export Plug-In . SVG Version: 6.00 Build 0)  -->
<svg version="1.1" id="Layer_1" xmlns="http://www.w3.org/2000/svg" xmlns:xlink="http://www.w3.org/1999/xlink" x="0px" y="0px"
	 viewBox="0 0 100 100" style="enable-background:new 0 0 100 100;" xml:space="preserve">
<style type="text/css">
	.st0{fill:#010101;}
</style>
<polygon class="st0" points="80.2,51.6 51.4,51.6 51.4,22.6 48.9,22.6 48.9,51.6 19.9,51.6 19.9,54.1 48.9,54.1 48.9,83.1 
	51.4,83.1 51.4,54.1 80.4,54.1 80.4,51.6 "/>
</svg>
